%YAML 1.1
%TAG !u! tag:unity3d.com,2011:
--- !u!21 &2100000
Material:
  serializedVersion: 6
  m_ObjectHideFlags: 0
  m_CorrespondingSourceObject: {fileID: 0}
  m_PrefabInstance: {fileID: 0}
  m_PrefabAsset: {fileID: 0}
  m_Name: CausticsProjector
  m_Shader: {fileID: 4800000, guid: 4604cdeedf028f84a91b58e3c6b87608, type: 3}
  m_ShaderKeywords: 
  m_LightmapFlags: 4
  m_EnableInstancingVariants: 0
  m_DoubleSidedGI: 0
  m_CustomRenderQueue: -1
  stringTagMap: {}
  disabledShaderPasses: []
  m_SavedProperties:
    serializedVersion: 3
    m_TexEnvs:
    - _AlphaTex:
        m_Texture: {fileID: 0}
        m_Scale: {x: 0.29, y: 0.24}
        m_Offset: {x: 0, y: 0}
    - _BumpMap:
        m_Texture: {fileID: 0}
        m_Scale: {x: 1, y: 1}
        m_Offset: {x: 0, y: 0}
    - _DetailAlbedoMap:
        m_Texture: {fileID: 0}
        m_Scale: {x: 1, y: 1}
        m_Offset: {x: 0, y: 0}
    - _DetailMask:
        m_Texture: {fileID: 0}
        m_Scale: {x: 1, y: 1}
        m_Offset: {x: 0, y: 0}
    - _DetailNormalMap:
        m_Texture: {fileID: 0}
        m_Scale: {x: 1, y: 1}
        m_Offset: {x: 0, y: 0}
    - _EmissionMap:
        m_Texture: {fileID: 0}
        m_Scale: {x: 1, y: 1}
        m_Offset: {x: 0, y: 0}
    - _MainTex:
        m_Texture: {fileID: 2800000, guid: 10f5d926b1335a7438827a309504a28f, type: 3}
        m_Scale: {x: 10, y: 10}
        m_Offset: {x: 0, y: 0}
    - _MetallicGlossMap:
        m_Texture: {fileID: 0}
        m_Scale: {x: 1, y: 1}
        m_Offset: {x: 0, y: 0}
    - _NoiseTex:
        m_Texture: {fileID: 2800000, guid: 2960887ed0c15ad4280aa8ff61836fbf, type: 3}
        m_Scale: {x: 2, y: 2}
        m_Offset: {x: 0, y: 0}
    - _OcclusionMap:
        m_Texture: {fileID: 0}
        m_Scale: {x: 1, y: 1}
        m_Offset: {x: 0, y: 0}
    - _ParallaxMap:
        m_Texture: {fileID: 0}
        m_Scale: {x: 1, y: 1}
        m_Offset: {x: 0, y: 0}
    m_Floats:
    - _Blend: 1
    - _BumpScale: 1
    - _CausticSpeed: 18
    - _Cutoff: 0.5
    - _DepthBlend: 6805.9
    - _DepthFade: 75
    - _DetailNormalMapScale: 1
    - _Diffract: 0.007
    - _Diffraction: 0.007
    - _Distance: 610.2
    - _DistanceBlend: 500
    - _Distortion: 6
    - _DistortionSpeed: 1
    - _DstBlend: 0
    - _EdgeBlend: 100
    - _GlossMapScale: 1
    - _Glossiness: 0.5
    - _GlossyReflections: 1
    - _Height: 6.57
    - _LOD: 1509
    - _Metallic: 0
    - _Mode: 0
    - _Multiply: 1
    - _OcclusionStrength: 1
    - _Parallax: 0.02
    - _Size: 50
    - _SmoothnessTextureChannel: 0
    - _SpecularHighlights: 1
    - _SplitRGB: 0.007
    - _SrcBlend: 1
    - _UVSec: 0
    - _ZWrite: 1
    - _waterMagnitude: 1
    m_Colors:
    - _Color: {r: 0.95326483, g: 0.9558824, b: 0.7661116, a: 1}
    - _EmissionColor: {r: 0, g: 0, b: 0, a: 1}
