%YAML 1.1
%TAG !u! tag:unity3d.com,2011:
--- !u!1001 &5677637800770305878
PrefabInstance:
  m_ObjectHideFlags: 0
  serializedVersion: 2
  m_Modification:
    m_TransformParent: {fileID: 0}
    m_Modifications:
    - target: {fileID: 191064, guid: 71d5b815a72184293b1c2534d55059ad, type: 3}
      propertyPath: m_Name
      value: mySardine
      objectReference: {fileID: 0}
    - target: {fileID: 474344, guid: 71d5b815a72184293b1c2534d55059ad, type: 3}
      propertyPath: m_LocalPosition.x
      value: 0
      objectReference: {fileID: 0}
    - target: {fileID: 474344, guid: 71d5b815a72184293b1c2534d55059ad, type: 3}
      propertyPath: m_LocalPosition.y
      value: 0
      objectReference: {fileID: 0}
    - target: {fileID: 474344, guid: 71d5b815a72184293b1c2534d55059ad, type: 3}
      propertyPath: m_LocalPosition.z
      value: 0
      objectReference: {fileID: 0}
    - target: {fileID: 474344, guid: 71d5b815a72184293b1c2534d55059ad, type: 3}
      propertyPath: m_LocalRotation.x
      value: 0
      objectReference: {fileID: 0}
    - target: {fileID: 474344, guid: 71d5b815a72184293b1c2534d55059ad, type: 3}
      propertyPath: m_LocalRotation.y
      value: 0
      objectReference: {fileID: 0}
    - target: {fileID: 474344, guid: 71d5b815a72184293b1c2534d55059ad, type: 3}
      propertyPath: m_LocalRotation.z
      value: 0
      objectReference: {fileID: 0}
    - target: {fileID: 474344, guid: 71d5b815a72184293b1c2534d55059ad, type: 3}
      propertyPath: m_LocalRotation.w
      value: 1
      objectReference: {fileID: 0}
    - target: {fileID: 474344, guid: 71d5b815a72184293b1c2534d55059ad, type: 3}
      propertyPath: m_RootOrder
      value: 0
      objectReference: {fileID: 0}
    - target: {fileID: 474344, guid: 71d5b815a72184293b1c2534d55059ad, type: 3}
      propertyPath: m_LocalEulerAnglesHint.x
      value: 0
      objectReference: {fileID: 0}
    - target: {fileID: 474344, guid: 71d5b815a72184293b1c2534d55059ad, type: 3}
      propertyPath: m_LocalEulerAnglesHint.y
      value: 0
      objectReference: {fileID: 0}
    - target: {fileID: 474344, guid: 71d5b815a72184293b1c2534d55059ad, type: 3}
      propertyPath: m_LocalEulerAnglesHint.z
      value: 0
      objectReference: {fileID: 0}
    - target: {fileID: 11481314, guid: 71d5b815a72184293b1c2534d55059ad, type: 3}
      propertyPath: m_Enabled
      value: 1
      objectReference: {fileID: 0}
    m_RemovedComponents:
    - {fileID: 11481314, guid: 71d5b815a72184293b1c2534d55059ad, type: 3}
  m_SourcePrefab: {fileID: 100100000, guid: 71d5b815a72184293b1c2534d55059ad, type: 3}
